…
pups_data = read_csv("./data/FAS_pups.csv",
  col_types = "ciiiii")
pups_data = janitor::clean_names(pups_data)
```

## select

You can specify the columns you want to keep by naming all of them:

``` r
select(litters_data, group, litter_number, gd0_weight, pups_born_alive)
```

    ## # A tibble: 49 × 4
    ##   group litter_number gd0_weight pups_born_alive
    ##   <chr> <chr>              <dbl>           <int>
    ## 1 Con7  #85                 19.7               3
    ## 2 Con7  #1/2/95/2           27                 8
    ## 3 Con7  #5/5/3/83/3-3       26                 6
    ## # … with 46 more rows
    ## # ℹ Use `print(n = ...)` to see more rows

You can specify the specify a range of columns to keep:

``` r
select(litters_data, group:gd_of_birth)
```

    ## # A tibble: 49 × 5
    ##   group litter_number gd0_weight gd18_weight gd_of_birth
    ##   <chr> <chr>              <dbl>       <dbl>       <int>
    ## 1 Con7  #85                 19.7        34.7          20
    ## 2 Con7  #1/2/95/2           27          42            19
    ## 3 Con7  #5/5/3/83/3-3       26          41.4          19
    ## # … with 46 more rows
    ## # ℹ Use `print(n = ...)` to see more rows

You can also specify columns you’d like to remove:

``` r
select(litters_data, -pups_survive)
```

    ## # A tibble: 49 × 7
    ##   group litter_number gd0_weight gd18_weight gd_of_birth pups_born_alive pups_…¹
    ##   <chr> <chr>              <dbl>       <dbl>       <int>           <int>   <int>
    ## 1 Con7  #85                 19.7        34.7          20               3       4
    ## 2 Con7  #1/2/95/2           27          42            19               8       0
    ## 3 Con7  #5/5/3/83/3-3       26          41.4          19               6       0
    ## # … with 46 more rows, and abbreviated variable name ¹​pups_dead_birth
    ## # ℹ Use `print(n = ...)` to see more rows

You can rename variables as part of this process:

``` r
select(litters_data, GROUP = group, LiTtEr_NuMbEr = litter_number)
```

    ## # A tibble: 49 × 2
    ##   GROUP LiTtEr_NuMbEr
    ##   <chr> <chr>        
    ## 1 Con7  #85          
    ## 2 Con7  #1/2/95/2    
    ## 3 Con7  #5/5/3/83/3-3
    ## # … with 46 more rows
    ## # ℹ Use `print(n = ...)` to see more rows

If all you want to do is rename something, you can use rename instead of
select. This will rename the variables you care about, and keep
everything else:

``` r
rename(litters_data, GROUP = group, LiTtEr_NuMbEr = litter_number)
```

    ## # A tibble: 49 × 8
    ##   GROUP LiTtEr_NuMbEr gd0_weight gd18_weight gd_of_birth pups_…¹ pups_…² pups_…³
    ##   <chr> <chr>              <dbl>       <dbl>       <int>   <int>   <int>   <int>
    ## 1 Con7  #85                 19.7        34.7          20       3       4       3
    ## 2 Con7  #1/2/95/2           27          42            19       8       0       7
    ## 3 Con7  #5/5/3/83/3-3       26          41.4          19       6       0       5
    ## # … with 46 more rows, and abbreviated variable names ¹​pups_born_alive,
    ## #   ²​pups_dead_birth, ³​pups_survive
    ## # ℹ Use `print(n = ...)` to see more rows

There are some handy helper functions for select; read about all of them
using ?select_helpers. I use starts_with(), ends_with(), and contains()
often, especially when there variables are named with suffixes or other
standard patterns:

``` r
select(litters_data, starts_with("gd"))
```

    ## # A tibble: 49 × 3
    ##   gd0_weight gd18_weight gd_of_birth
    ##        <dbl>       <dbl>       <int>
    ## 1       19.7        34.7          20
    ## 2       27          42            19
    ## 3       26          41.4          19
    ## # … with 46 more rows
    ## # ℹ Use `print(n = ...)` to see more rows

I also frequently use is everything(), which is handy for reorganizing
columns without discarding anything:

``` r
select(litters_data, litter_number, pups_survive, everything())
```

    ## # A tibble: 49 × 8
    ##   litter_number pups_survive group gd0_weight gd18_wei…¹ gd_of…² pups_…³ pups_…⁴
    ##   <chr>                <int> <chr>      <dbl>      <dbl>   <int>   <int>   <int>
    ## 1 #85                      3 Con7        19.7       34.7      20       3       4
    ## 2 #1/2/95/2                7 Con7        27         42        19       8       0
    ## 3 #5/5/3/83/3-3            5 Con7        26         41.4      19       6       0
    ## # … with 46 more rows, and abbreviated variable names ¹​gd18_weight,
    ## #   ²​gd_of_birth, ³​pups_born_alive, ⁴​pups_dead_birth
    ## # ℹ Use `print(n = ...)` to see more rows

relocate does a similar thing (and is sort of like rename in that it’s
handy but not critical):

``` r
relocate(litters_data, litter_number, pups_survive)
```

    ## # A tibble: 49 × 8
    ##   litter_number pups_survive group gd0_weight gd18_wei…¹ gd_of…² pups_…³ pups_…⁴
    ##   <chr>                <int> <chr>      <dbl>      <dbl>   <int>   <int>   <int>
    ## 1 #85                      3 Con7        19.7       34.7      20       3       4
    ## 2 #1/2/95/2                7 Con7        27         42        19       8       0
    ## 3 #5/5/3/83/3-3            5 Con7        26         41.4      19       6       0
    ## # … with 46 more rows, and abbreviated variable names ¹​gd18_weight,
    ## #   ²​gd_of_birth, ³​pups_born_alive, ⁴​pups_dead_birth
    ## # ℹ Use `print(n = ...)` to see more rows

Learning Assessment: In the pups data, select the columns containing
litter number, sex, and PD ears.

Solution

``` r
select(pups_data,litter_number,sex,pd_ears)
```

    ## # A tibble: 313 × 3
    ##   litter_number   sex pd_ears
    ##   <chr>         <int>   <int>
    ## 1 #85               1       4
    ## 2 #85               1       4
    ## 3 #1/2/95/2         1       5
    ## # … with 310 more rows
    ## # ℹ Use `print(n = ...)` to see more rows
…
You will often filter using comparison operators (\>, \>=, \<, \<=, ==,
and !=). You may also use %in% to detect if values appear in a set, and
is.na() to find missing values. The results of comparisons are logical –
the statement is TRUE or FALSE depending on the values you compare – and
can be combined with other comparisons using the logical operators & and
\|, or negated using !.

``` r
drop_na(litters_data)
```

    ## # A tibble: 31 × 8
    ##   group litter_number gd0_weight gd18_weight gd_of_birth pups_…¹ pups_…² pups_…³
    ##   <chr> <chr>              <dbl>       <dbl>       <int>   <int>   <int>   <int>
    ## 1 Con7  #85                 19.7        34.7          20       3       4       3
    ## 2 Con7  #1/2/95/2           27          42            19       8       0       7
    ## 3 Con7  #5/5/3/83/3-3       26          41.4          19       6       0       5
    ## # … with 28 more rows, and abbreviated variable names ¹​pups_born_alive,
    ## #   ²​pups_dead_birth, ³​pups_survive
    ## # ℹ Use `print(n = ...)` to see more rows

drop_na(litters_data) will remove any row with a missing value

``` r
drop_na(litters_data, gd0_weight)
```

    ## # A tibble: 34 × 8
    ##   group litter_number gd0_weight gd18_weight gd_of_birth pups_…¹ pups_…² pups_…³
    ##   <chr> <chr>              <dbl>       <dbl>       <int>   <int>   <int>   <int>
    ## 1 Con7  #85                 19.7        34.7          20       3       4       3
    ## 2 Con7  #1/2/95/2           27          42            19       8       0       7
    ## 3 Con7  #5/5/3/83/3-3       26          41.4          19       6       0       5
    ## # … with 31 more rows, and abbreviated variable names ¹​pups_born_alive,
    ## #   ²​pups_dead_birth, ³​pups_survive
    ## # ℹ Use `print(n = ...)` to see more rows
drop_na(litters_data, wt_increase) will remove rows for which
wt_increase is missing.

Learning Assessment: In the pups data:

1.  Filter to include only pups with sex 1
2.  Filter to include only pups with PD walk less than 11 and sex 2

Solution 1.

``` r
filter(pups_data,sex==1)
```

    ## # A tibble: 155 × 6
    ##   litter_number   sex pd_ears pd_eyes pd_pivot pd_walk
    ##   <chr>         <int>   <int>   <int>    <int>   <int>
    ## 1 #85               1       4      13        7      11
    ## 2 #85               1       4      13        7      12
    ## 3 #1/2/95/2         1       5      13        7       9
    ## # … with 152 more rows
    ## # ℹ Use `print(n = ...)` to see more rows

2.  

``` r
filter(pups_data,sex==2,pd_walk<11)
```

    ## # A tibble: 127 × 6
    ##   litter_number   sex pd_ears pd_eyes pd_pivot pd_walk
    ##   <chr>         <int>   <int>   <int>    <int>   <int>
    ## 1 #1/2/95/2         2       4      13        7       9
    ## 2 #1/2/95/2         2       4      13        7      10
    ## 3 #1/2/95/2         2       5      13        8      10
    ## # … with 124 more rows
    ## # ℹ Use `print(n = ...)` to see more rows
…
Sometimes you need to select columns; sometimes you need to change them
or create new ones. You can do this using mutate.

The example below creates a new variable measuring the difference
between gd18_weight and gd0_weight and modifies the existing group
variable.

``` r
mutate(litters_data,
  wt_gain = gd18_weight - gd0_weight,
  group = str_to_lower(group) #改成小写
)
```

    ## # A tibble: 49 × 9
    ##   group litter_number gd0_weight gd18_…¹ gd_of…² pups_…³ pups_…⁴ pups_…⁵ wt_gain
    ##   <chr> <chr>              <dbl>   <dbl>   <int>   <int>   <int>   <int>   <dbl>
    ## 1 con7  #85                 19.7    34.7      20       3       4       3    15  
    ## 2 con7  #1/2/95/2           27      42        19       8       0       7    15  
    ## 3 con7  #5/5/3/83/3-3       26      41.4      19       6       0       5    15.4
    ## # … with 46 more rows, and abbreviated variable names ¹​gd18_weight,
    ## #   ²​gd_of_birth, ³​pups_born_alive, ⁴​pups_dead_birth, ⁵​pups_survive
    ## # ℹ Use `print(n = ...)` to see more rows

Learning Assessment: In the pups data:

1.Create a variable that subtracts 7 from PD pivot 2.Create a variable
that is the sum of all the PD variables

Solution 1

``` r
mutate(pups_data,pd_pivot_subs_seven=pd_pivot-7)
```

    ## # A tibble: 313 × 7
    ##   litter_number   sex pd_ears pd_eyes pd_pivot pd_walk pd_pivot_subs_seven
    ##   <chr>         <int>   <int>   <int>    <int>   <int>               <dbl>
    ## 1 #85               1       4      13        7      11                   0
    ## 2 #85               1       4      13        7      12                   0
    ## 3 #1/2/95/2         1       5      13        7       9                   0
    ## # … with 310 more rows
    ## # ℹ Use `print(n = ...)` to see more rows

2

``` r
mutate(pups_data,pd_sum=pd_ears+pd_eyes+pd_pivot+pd_walk)
```

    ## # A tibble: 313 × 7
    ##   litter_number   sex pd_ears pd_eyes pd_pivot pd_walk pd_sum
    ##   <chr>         <int>   <int>   <int>    <int>   <int>  <int>
    ## 1 #85               1       4      13        7      11     35
    ## 2 #85               1       4      13        7      12     36
    ## 3 #1/2/95/2         1       5      13        7       9     34
    ## # … with 310 more rows
    ## # ℹ Use `print(n = ...)` to see more rows
…
``` r
litters_data = 
  read_csv("./data/FAS_litters.csv", col_types = "ccddiiii") %>%
  janitor::clean_names(dat = .) %>%
  select(.data = ., -pups_survive) %>%
  mutate(.data = .,
    wt_gain = gd18_weight - gd0_weight,
    group = str_to_lower(group)) %>% 
  drop_na(data = ., wt_gain)

litters_data
```

    ## # A tibble: 31 × 8
    ##   group litter_number gd0_weight gd18_weight gd_of_birth pups_…¹ pups_…² wt_gain
    ##   <chr> <chr>              <dbl>       <dbl>       <int>   <int>   <int>   <dbl>
    ## 1 con7  #85                 19.7        34.7          20       3       4    15  
    ## 2 con7  #1/2/95/2           27          42            19       8       0    15  
    ## 3 con7  #5/5/3/83/3-3       26          41.4          19       6       0    15.4
    ## # … with 28 more rows, and abbreviated variable names ¹​pups_born_alive,
    ## #   ²​pups_dead_birth
    ## # ℹ Use `print(n = ...)` to see more rows
